<?xml version="1.0" encoding="utf-8"?>
<!-- Generator: Adobe Illustrator 23.1.1, SVG Export Plug-In . SVG Version: 6.00 Build 0)  -->
<svg version="1.1" id="Layer_1" xmlns="http://www.w3.org/2000/svg" xmlns:xlink="http://www.w3.org/1999/xlink" x="0px" y="0px"
	 width="160px" height="208px" viewBox="0 0 160 208" style="enable-background:new 0 0 160 208;" xml:space="preserve">
<style type="text/css">
	.st0{enable-background:new    ;}
	.st1{fill:#003E7E;}
</style>
<g class="st0">
	<path class="st1" d="M13.5,130.4h3.3l1.8,9.2l2.3-9.2h3.4l2.2,9.2l1.8-9.2h3.3L28.2,143h-3.7l-2-8.3l-2.1,8.3h-3.7L13.5,130.4z"/>
	<path class="st1" d="M33.1,130.4h3.1V143h-3.1V130.4z"/>
	<path class="st1" d="M37.7,130.4h9.8v2.5h-3.3V143H41v-10.2h-3.3V130.4z"/>
	<path class="st1" d="M56.9,137.8h-4.8v5.2H49v-12.6h3.1v5h4.8v-5h3.1V143h-3.1V137.8z"/>
	<path class="st1" d="M65.3,130.4h9.8v2.5h-3.3V143h-3.1v-10.2h-3.3V130.4z"/>
	<path class="st1" d="M84.5,137.8h-4.8v5.2h-3.1v-12.6h3.1v5h4.8v-5h3.1V143h-3.1V137.8z"/>
	<path class="st1" d="M97.5,132.8h-4.7v2.6H97v2.4h-4.1v2.8h4.7v2.5h-7.7v-12.6h7.7V132.8z"/>
</g>
<g class="st0">
	<path class="st1" d="M14.1,149.4h3.6l3.5,8.8l3.5-8.8h3.6V162h-3.1v-7.6l-2.8,7.6H20l-2.8-7.6v7.6h-3.1V149.4z"/>
	<path class="st1" d="M38.5,159.8h-4.7L33,162h-3.2l4.6-12.6H38l4.6,12.6h-3.3L38.5,159.8z M36.1,152.8l-1.5,4.6h3.1L36.1,152.8z"/>
	<path class="st1" d="M49.1,149.4c3.1,0,4.6,1.8,4.6,4c0,1.6-0.9,3.1-2.8,3.7l2.9,5h-3.5l-2.6-4.8H47v4.8h-3.1v-12.6H49.1z
		 M48.9,151.9H47v3.1h1.9c1.2,0,1.7-0.6,1.7-1.6C50.6,152.5,50,151.9,48.9,151.9z"/>
	<path class="st1" d="M58.7,156.4v5.6h-3.1v-12.6h3.1v5.5l4.2-5.5h3.6l-4.9,6.2l5.1,6.4H63L58.7,156.4z"/>
	<path class="st1" d="M75.9,151.8h-4.7v2.6h4.1v2.4h-4.1v2.8h4.7v2.5h-7.7v-12.6h7.7V151.8z"/>
	<path class="st1" d="M77.2,149.4H87v2.5h-3.3V162h-3.1v-10.2h-3.3V149.4z"/>
</g>
<g class="st0">
	<path class="st1" d="M17.2,168.4v10.3h4v2.4h-7.1v-12.6H17.2z"/>
	<path class="st1" d="M30.4,170.8h-4.7v2.6h4.1v2.4h-4.1v2.8h4.7v2.5h-7.7v-12.6h7.7V170.8z"/>
	<path class="st1" d="M40.3,178.8h-4.7l-0.8,2.2h-3.2l4.6-12.6h3.6l4.6,12.6h-3.3L40.3,178.8z M37.9,171.8l-1.5,4.6h3.1L37.9,171.8z
		"/>
	<path class="st1" d="M57.1,174.7c0,3.7-2.6,6.3-6.6,6.3h-4.7v-12.6h4.7C54.5,168.4,57.1,170.9,57.1,174.7z M50.2,178.3
		c2.3,0,3.7-1.3,3.7-3.7c0-2.3-1.4-3.7-3.7-3.7h-1.5v7.3H50.2z"/>
	<path class="st1" d="M66.5,170.8h-4.7v2.6H66v2.4h-4.1v2.8h4.7v2.5h-7.7v-12.6h7.7V170.8z"/>
	<path class="st1" d="M73.7,168.4c3.1,0,4.6,1.8,4.6,4c0,1.6-0.9,3.1-2.8,3.7l2.9,5H75l-2.6-4.8h-0.7v4.8h-3.1v-12.6H73.7z
		 M73.5,170.9h-1.9v3.1h1.9c1.2,0,1.7-0.6,1.7-1.6C75.2,171.5,74.7,170.9,73.5,170.9z"/>
	<path class="st1" d="M84.1,168.4h3.1V181h-3.1V168.4z"/>
	<path class="st1" d="M100.7,168.4V181h-3.1l-5.1-7.8v7.8h-3.1v-12.6h3.1l5.1,7.8v-7.8H100.7z"/>
</g>
<g class="st0">
	<path class="st1" d="M25.5,193.7c0,3.7-2.6,6.3-6.6,6.3h-4.7v-12.6h4.7C22.9,187.4,25.5,189.9,25.5,193.7z M18.7,197.3
		c2.3,0,3.7-1.3,3.7-3.7c0-2.3-1.4-3.7-3.7-3.7h-1.5v7.3H18.7z"/>
	<path class="st1" d="M34.9,189.8h-4.7v2.6h4.1v2.4h-4.1v2.8h4.7v2.5h-7.7v-12.6h7.7V189.8z"/>
	<path class="st1" d="M42.1,187.4c3.1,0,4.6,1.8,4.6,4c0,1.6-0.9,3.1-2.8,3.7l2.9,5h-3.5l-2.6-4.8H40v4.8h-3.1v-12.6H42.1z
		 M41.9,189.9H40v3.1h1.9c1.2,0,1.7-0.6,1.7-1.6C43.6,190.5,43.1,189.9,41.9,189.9z"/>
	<path class="st1" d="M48.7,187.4h3.1V200h-3.1V187.4z"/>
	<path class="st1" d="M62.6,187.4h3.3L61.4,200h-3.9L53,187.4h3.3l3.1,9.5L62.6,187.4z"/>
	<path class="st1" d="M75,197.8h-4.7l-0.8,2.2h-3.2l4.6-12.6h3.6L79,200h-3.3L75,197.8z M72.6,190.8l-1.5,4.6h3.1L72.6,190.8z"/>
	<path class="st1" d="M79.7,187.4h9.8v2.5h-3.3V200h-3.1v-10.2h-3.3V187.4z"/>
	<path class="st1" d="M91,187.4h3.1V200H91V187.4z"/>
	<path class="st1" d="M104.9,187.4h3.3l-4.5,12.6h-3.9l-4.5-12.6h3.3l3.1,9.5L104.9,187.4z"/>
	<path class="st1" d="M117.2,189.8h-4.7v2.6h4.1v2.4h-4.1v2.8h4.7v2.5h-7.7v-12.6h7.7V189.8z"/>
	<path class="st1" d="M123.8,200.1c-2.7,0-4.8-1.4-4.9-3.9h3.3c0.1,1,0.7,1.4,1.6,1.4c0.9,0,1.5-0.5,1.5-1.2c0-2.3-6.3-1.1-6.3-5.6
		c0-2.4,2-3.7,4.6-3.7c2.8,0,4.6,1.4,4.7,3.8h-3.3c-0.1-0.8-0.6-1.3-1.5-1.3c-0.7,0-1.3,0.4-1.3,1.2c0,2.2,6.2,1.2,6.2,5.4
		C128.4,198.4,126.7,200.1,123.8,200.1z"/>
	<path class="st1" d="M131.7,200.1c-1.1,0-1.8-0.7-1.8-1.7c0-1,0.7-1.7,1.8-1.7c1.1,0,1.8,0.7,1.8,1.7
		C133.5,199.4,132.8,200.1,131.7,200.1z"/>
</g>
</svg>
