<?xml version="1.0" encoding="utf-8"?>
<!-- Generator: Adobe Illustrator 23.1.1, SVG Export Plug-In . SVG Version: 6.00 Build 0)  -->
<svg version="1.1" id="Layer_1" xmlns="http://www.w3.org/2000/svg" xmlns:xlink="http://www.w3.org/1999/xlink" x="0px" y="0px"
	 width="150px" height="50px" viewBox="0 0 150 50" style="enable-background:new 0 0 150 50;" xml:space="preserve">
<style type="text/css">
	.st0{fill:#FFD600;}
	.st1{enable-background:new    ;}
	.st2{fill:#003E7E;}
</style>
<g id="Group_100" transform="translate(-407 -27)">
	<rect id="Rectangle_3" x="415" y="32.5" class="st0" width="134" height="39"/>
	<g class="st1">
		<path class="st2" d="M429.7,46.5c0,2.3-1.6,3.9-4,3.9h-2.9v-7.7h2.9C428.1,42.7,429.7,44.2,429.7,46.5z M425.5,48.7
			c1.4,0,2.3-0.8,2.3-2.2s-0.8-2.3-2.3-2.3h-0.9v4.5H425.5z"/>
		<path class="st2" d="M430.7,42.7h1.9v7.7h-1.9V42.7z"/>
		<path class="st2" d="M436.7,50.5c-1.7,0-3-0.8-3-2.4h2c0.1,0.6,0.4,0.9,1,0.9c0.5,0,0.9-0.3,0.9-0.7c0-1.4-3.9-0.7-3.8-3.4
			c0-1.5,1.2-2.3,2.8-2.3c1.7,0,2.8,0.8,2.9,2.3h-2c0-0.5-0.4-0.8-0.9-0.8s-0.8,0.2-0.8,0.7c0,1.3,3.8,0.7,3.8,3.3
			C439.6,49.4,438.6,50.5,436.7,50.5z"/>
		<path class="st2" d="M444.3,42.6c1.8,0,3.2,1,3.7,2.7h-2.1c-0.3-0.7-0.9-1-1.6-1c-1.2,0-1.9,0.9-1.9,2.2c0,1.4,0.8,2.2,1.9,2.2
			c0.7,0,1.3-0.3,1.6-1h2.1c-0.4,1.7-1.8,2.7-3.7,2.7c-2.3,0-3.9-1.6-3.9-3.9C440.4,44.2,442,42.6,444.3,42.6z"/>
		<path class="st2" d="M452.8,50.5c-2.2,0-4-1.6-4-4s1.8-3.9,4-3.9s4,1.6,4,3.9S454.9,50.5,452.8,50.5z M452.8,48.7
			c1.2,0,2-0.9,2-2.2c0-1.4-0.8-2.2-2-2.2c-1.3,0-2,0.9-2,2.2C450.7,47.8,451.5,48.7,452.8,48.7z"/>
		<path class="st2" d="M463,42.7h2l-2.7,7.7h-2.4l-2.7-7.7h2l1.9,5.8L463,42.7z"/>
		<path class="st2" d="M470.5,44.2h-2.8v1.6h2.5v1.5h-2.5V49h2.8v1.5h-4.7v-7.7h4.7V44.2z"/>
		<path class="st2" d="M474.9,42.7c1.9,0,2.8,1.1,2.8,2.4c0,1-0.5,1.9-1.7,2.2l1.8,3.1h-2.1l-1.6-2.9h-0.5v2.9h-1.9v-7.7H474.9z
			 M474.8,44.2h-1.2v1.9h1.2c0.7,0,1-0.4,1-1C475.8,44.6,475.5,44.2,474.8,44.2z"/>
		<path class="st2" d="M480.6,42.7h2.1l1.5,3.2l1.5-3.2h2.1l-2.7,5.2v2.6h-1.9v-2.6L480.6,42.7z"/>
		<path class="st2" d="M492.3,50.5c-2.2,0-4-1.6-4-4s1.8-3.9,4-3.9s3.9,1.6,3.9,3.9S494.5,50.5,492.3,50.5z M492.3,48.7
			c1.2,0,2-0.9,2-2.2c0-1.4-0.8-2.2-2-2.2c-1.3,0-2,0.9-2,2.2C490.2,47.8,491,48.7,492.3,48.7z"/>
		<path class="st2" d="M497.2,42.7h1.9v4.6c0,0.9,0.5,1.4,1.3,1.4c0.9,0,1.4-0.5,1.4-1.4v-4.6h1.9v4.6c0,2.1-1.5,3.2-3.3,3.2
			s-3.2-1.1-3.2-3.2L497.2,42.7L497.2,42.7z"/>
		<path class="st2" d="M508.2,42.7c1.9,0,2.8,1.1,2.8,2.4c0,1-0.5,1.9-1.7,2.2l1.8,3.1H509l-1.6-2.9h-0.5v2.9H505v-7.7H508.2z
			 M508.1,44.2h-1.2v1.9h1.2c0.7,0,1-0.4,1-1C509.1,44.6,508.8,44.2,508.1,44.2z"/>
	</g>
	<g class="st1">
		<path class="st2" d="M425.5,61.5c-1.7,0-3-0.8-3-2.4h2c0.1,0.6,0.4,0.9,1,0.9s0.9-0.3,0.9-0.7c0-1.4-3.9-0.7-3.8-3.4
			c0-1.5,1.2-2.3,2.8-2.3c1.7,0,2.8,0.8,2.9,2.3h-2c0-0.5-0.4-0.8-0.9-0.8s-0.8,0.2-0.8,0.7c0,1.3,3.8,0.7,3.8,3.3
			C428.3,60.4,427.3,61.5,425.5,61.5z"/>
		<path class="st2" d="M429.1,53.7h2l1.1,5.6l1.4-5.6h2.1l1.3,5.6l1.1-5.6h2l-2,7.7h-2.3l-1.2-5.1l-1.3,5.1H431L429.1,53.7z"/>
		<path class="st2" d="M445.9,60H443l-0.5,1.4h-2l2.8-7.7h2.2l2.8,7.7h-2L445.9,60z M444.4,55.7l-0.9,2.8h1.9L444.4,55.7z"/>
		<path class="st2" d="M452.2,58.6H451v2.8h-1.9v-7.7h3c1.9,0,2.8,1.1,2.8,2.5C455,57.4,454.2,58.6,452.2,58.6z M452.1,57.1
			c0.7,0,1.1-0.4,1.1-1s-0.3-1-1.1-1h-1V57L452.1,57.1L452.1,57.1z"/>
		<path class="st2" d="M458.8,61.5c-1.7,0-3-0.8-3-2.4h2c0.1,0.6,0.4,0.9,1,0.9s0.9-0.3,0.9-0.7c0-1.4-3.9-0.7-3.8-3.4
			c0-1.5,1.2-2.3,2.8-2.3c1.7,0,2.8,0.8,2.9,2.3h-2c0-0.5-0.4-0.8-0.9-0.8s-0.8,0.2-0.8,0.7c0,1.3,3.8,0.7,3.8,3.3
			C461.6,60.4,460.6,61.5,458.8,61.5z"/>
		<path class="st2" d="M469.9,60H467l-0.5,1.4h-2l2.8-7.7h2.2l2.8,7.7h-2L469.9,60z M468.5,55.7l-0.9,2.8h1.9L468.5,55.7z"/>
		<path class="st2" d="M480.2,57.5c0,2.3-1.6,3.9-4,3.9h-2.9v-7.7h2.9C478.6,53.7,480.2,55.2,480.2,57.5z M476,59.7
			c1.4,0,2.3-0.8,2.3-2.2s-0.8-2.3-2.3-2.3h-0.9v4.5H476z"/>
		<path class="st2" d="M486.5,53.7h2l-2.7,7.7h-2.4l-2.7-7.7h2l1.9,5.8L486.5,53.7z"/>
		<path class="st2" d="M494.1,60h-2.9l-0.5,1.4h-2l2.8-7.7h2.2l2.8,7.7h-2L494.1,60z M492.6,55.7l-0.9,2.8h1.9L492.6,55.7z"/>
		<path class="st2" d="M504.3,53.7v7.7h-1.9l-3.1-4.8v4.8h-1.9v-7.7h1.9l3.1,4.8v-4.8H504.3z"/>
		<path class="st2" d="M505.2,53.7h6v1.5h-2v6.2h-1.9v-6.2h-2v-1.5H505.2z"/>
		<path class="st2" d="M516.9,60H514l-0.5,1.4h-2l2.8-7.7h2.2l2.8,7.7h-2L516.9,60z M515.5,55.7l-0.9,2.8h1.9L515.5,55.7z"/>
		<path class="st2" d="M527.4,56.1h-2.1c-0.3-0.5-0.8-0.8-1.5-0.8c-1.2,0-2,0.9-2,2.2c0,1.4,0.8,2.3,2.2,2.3c0.9,0,1.6-0.5,1.9-1.4
			h-2.4V57h4.1v1.7c-0.4,1.3-1.7,2.7-3.7,2.7c-2.3,0-3.9-1.6-3.9-3.9c0-2.3,1.6-3.9,3.9-3.9C525.7,53.6,527,54.5,527.4,56.1z"/>
		<path class="st2" d="M533.3,55.2h-2.8v1.6h2.5v1.5h-2.5V60h2.8v1.5h-4.7v-7.7h4.7V55.2z"/>
		<path class="st2" d="M539.2,57.5l-2.2-2.4h2.4l2.2,2.4l-2.2,2.4H537L539.2,57.5z"/>
	</g>
</g>
</svg>
